{ "height":15,
 "infinite":false,
 "layers":[
        {
         "data":[0, 0, 0, 0, 0, 0, 0, 0, 0, 0, 0, 0, 0, 0, 0, 0, 0, 0, 0, 0, 0, 0, 0, 0, 0, 0, 0, 0, 0, 0, 0, 0, 0, 0, 0, 0, 0, 0, 0, 0, 0, 0, 0, 0, 0, 0, 0, 0, 0, 0, 0, 0, 0, 0, 0, 0, 0, 0, 0, 0, 0, 0, 0, 0, 0, 0, 0, 0, 0, 0, 0, 0, 0, 0, 0, 0, 0, 0, 0, 0, 0, 0, 0, 0, 0, 0, 0, 0, 0, 0, 0, 0, 0, 0, 0, 0, 0, 0, 0, 0, 0, 0, 0, 0, 0, 0, 0, 0, 0, 0, 0, 0, 0, 0, 0, 0, 0, 0, 0, 0, 0, 0, 0, 0, 0, 0, 0, 0, 0, 0, 0, 0, 0, 0, 0, 0, 0, 0, 0, 0, 0, 0, 0, 0, 0, 0, 0, 0, 0, 0, 0, 0, 0, 0, 0, 0, 0, 0, 0, 0, 0, 0, 0, 0, 0, 0, 0, 0, 0, 0, 0, 0, 0, 0, 0, 0, 0, 0, 0, 0, 0, 0, 0, 0, 0, 0, 0, 0, 0, 0, 0, 0, 0, 0, 0, 0, 0, 0, 0, 0, 0, 0, 0, 0, 0, 0, 0, 0, 0, 0, 0, 0, 0, 0, 0, 0, 0, 0, 0, 0, 0, 0, 0, 0, 0, 0, 0, 0, 0, 0, 0, 0, 0, 0, 0, 0, 0, 0, 0, 0, 0, 0, 0, 0, 0, 0, 0, 0, 0, 0, 0, 0, 0, 0, 0, 0, 0, 0, 0, 0, 0, 0, 0, 0, 0, 0, 0, 0, 0, 0, 0, 0, 0, 0, 0, 0, 0, 0, 0, 0, 0, 0, 0, 0, 0, 0, 0, 0, 0, 0, 0, 0, 0, 0, 0, 0, 0, 0, 0, 0, 0, 0, 0, 0, 0, 0, 0, 0, 0, 0, 0, 0, 0, 0, 0, 0, 0, 0, 0, 0, 0, 0, 0, 0, 0, 0, 0, 0, 0, 0, 0, 0, 0, 0, 0, 0, 0, 0, 0, 0, 0, 0, 0, 0, 0, 0, 0, 0, 0, 0, 0, 0, 0, 0, 0, 0, 0, 0, 0, 0, 0, 0, 0, 0, 0, 0, 0, 0, 0, 0, 0, 0, 0, 0, 0, 0, 0, 0, 0, 0, 0, 0, 0, 0, 0, 0, 0, 0, 0, 0, 0, 0, 0, 0, 0, 0, 0, 0, 0, 0, 0, 0, 0, 0, 0, 0, 0, 0, 0, 0, 0, 0, 0, 0, 0, 0, 0, 0, 0, 0, 0, 0, 0, 0, 0, 0, 0, 0, 0, 0, 0, 0, 0, 0, 0, 0, 0, 0, 0, 0, 0, 0, 0, 661, 662, 663, 0, 0, 0, 0, 0, 0, 0, 0, 0, 0, 0, 0, 0, 0, 661, 662, 662, 663, 0, 0, 0, 0, 0, 0, 0, 0, 0, 0, 0, 0, 0, 0, 0, 0, 0, 0, 0, 0, 0, 0, 0, 0, 0, 0, 0, 661, 662, 663, 0, 0, 0, 0, 0, 0, 0, 0, 0, 0, 0, 0, 0, 0, 661, 662, 662, 663, 0, 0, 0, 0, 0, 0, 0, 0, 0, 0, 0, 0, 0, 0, 0, 0, 0, 0, 0, 0, 0, 0, 0, 0, 0, 0, 0, 661, 662, 663, 0, 0, 0, 0, 0, 0, 0, 0, 0, 0, 0, 0, 0, 0, 661, 662, 662, 663, 0, 0, 0, 0, 0, 0, 0, 0, 0, 0, 0, 0, 0, 0, 0, 0, 0, 0, 0, 0, 0, 0, 0, 0, 0, 0, 0, 661, 662, 663, 0, 0, 0, 0, 0, 0, 0, 0, 0, 0, 0, 0, 0, 0, 661, 662, 662, 663, 0, 0, 0, 0, 0, 0, 0, 0, 0, 0, 0, 0, 0, 0, 281, 0, 0, 0, 0, 0, 0, 0, 0, 0, 0, 0, 0, 0, 0, 0, 0, 0, 0, 0, 0, 0, 0, 0, 0, 0, 0, 0, 0, 0, 0, 0, 0, 694, 695, 696, 0, 0, 0, 0, 0, 661, 662, 662, 662, 663, 0, 0, 0, 0, 694, 695, 695, 696, 0, 0, 0, 0, 0, 0, 0, 0, 0, 0, 0, 0, 0, 0, 0, 0, 661, 662, 663, 0, 0, 0, 0, 0, 0, 0, 0, 694, 695, 696, 0, 0, 0, 0, 0, 661, 662, 662, 662, 663, 0, 0, 0, 0, 694, 695, 695, 696, 0, 0, 0, 0, 0, 0, 0, 0, 0, 0, 0, 0, 0, 0, 0, 0, 661, 662, 663, 0, 0, 0, 0, 0, 0, 0, 0, 694, 695, 696, 0, 0, 0, 0, 0, 661, 662, 662, 662, 663, 0, 0, 0, 0, 694, 695, 695, 696, 0, 0, 0, 0, 0, 0, 0, 0, 0, 0, 0, 0, 0, 0, 0, 0, 661, 662, 663, 0, 0, 0, 0, 0, 0, 0, 0, 694, 695, 696, 0, 0, 0, 0, 0, 661, 662, 662, 662, 663, 0, 0, 0, 0, 694, 695, 695, 696, 0, 0, 0, 0, 0, 0, 0, 0, 0, 0, 0, 0, 0, 0, 0, 0, 661, 662, 663, 0, 0, 0, 0, 0, 0, 0, 0, 0, 0, 0, 0, 0, 0, 0, 0, 0, 0, 0, 0, 0, 0, 0, 0, 0, 0, 0, 0, 0, 0, 0, 0, 0, 0, 0, 0, 694, 695, 695, 695, 696, 0, 0, 0, 0, 0, 0, 0, 0, 0, 0, 0, 0, 0, 0, 0, 0, 0, 0, 0, 0, 0, 0, 0, 0, 694, 695, 696, 0, 0, 0, 0, 0, 0, 0, 0, 0, 0, 0, 0, 0, 0, 0, 0, 694, 695, 695, 695, 696, 0, 0, 0, 0, 0, 0, 0, 0, 0, 0, 0, 0, 0, 0, 0, 0, 0, 0, 0, 0, 0, 0, 0, 0, 694, 695, 696, 0, 0, 0, 0, 0, 0, 0, 0, 0, 0, 0, 0, 0, 0, 0, 0, 694, 695, 695, 695, 696, 0, 0, 0, 0, 0, 0, 0, 0, 0, 0, 0, 0, 0, 0, 0, 0, 0, 0, 0, 0, 0, 0, 0, 0, 694, 695, 696, 0, 0, 0, 0, 0, 0, 0, 0, 0, 0, 0, 0, 0, 0, 0, 0, 694, 695, 695, 695, 696, 0, 0, 0, 0, 0, 0, 0, 0, 0, 0, 0, 0, 0, 0, 0, 0, 0, 0, 0, 0, 0, 0, 0, 0, 694, 695, 696, 0, 0, 0, 0, 0, 0, 0, 0, 0, 0, 0, 0, 0, 0, 0, 0, 0, 0, 0, 0, 0, 0, 0, 0, 0, 0, 0, 0, 0, 0, 0, 0, 0, 0, 0, 0, 0, 0, 0, 0, 0, 0, 0, 0, 0, 0, 0, 0, 0, 0, 0, 0, 0, 0, 0, 0, 0, 0, 0, 0, 0, 0, 0, 0, 0, 0, 0, 0, 0, 0, 0, 0, 0, 0, 0, 0, 0, 0, 0, 0, 0, 0, 0, 0, 0, 0, 0, 0, 0, 0, 0, 0, 0, 0, 0, 0, 0, 0, 0, 0, 0, 0, 0, 0, 0, 0, 0, 0, 0, 0, 0, 0, 0, 0, 0, 0, 0, 0, 0, 0, 0, 0, 0, 0, 0, 0, 0, 0, 0, 0, 0, 0, 0, 0, 0, 0, 0, 0, 0, 0, 0, 0, 0, 0, 0, 0, 0, 0, 0, 0, 0, 0, 0, 0, 0, 0, 0, 0, 0, 0, 0, 0, 0, 0, 0, 0, 0, 0, 0, 0, 0, 0, 0, 0, 0, 0, 0, 0, 0, 0, 0, 0, 0, 0, 0, 0, 0, 0, 0, 0, 0, 0, 0, 0, 0, 0, 0, 0, 0, 0, 0, 0, 0, 0, 0, 0, 0, 0, 0, 0, 0, 0, 0, 0, 0, 0, 0, 0, 0, 0, 0, 0, 0, 0, 0, 0, 0, 0, 0, 0, 0, 0, 0, 0, 0, 0, 0, 0, 0, 0, 0, 0, 0, 0, 0, 0, 0, 0, 0, 0, 0, 0, 0, 0, 0, 0, 0, 0, 0, 0, 0, 0, 0, 0, 0, 0, 0, 0, 0, 0, 0, 0, 0, 0, 0, 0, 0, 0, 0, 0, 0, 0, 0, 0, 0, 0, 0, 0, 0, 0, 0, 0, 0, 0, 0, 0, 0, 0, 0, 0, 0, 0, 0, 0, 0, 0, 0, 0, 0, 0, 0, 0, 0, 0, 0, 0, 0, 0, 0, 0, 0, 0, 0, 0, 0, 0, 0, 0, 0, 0, 0, 0, 0, 0, 0, 0, 0, 0, 0, 0, 0, 0, 0, 0, 0, 0, 0, 0, 0, 0, 0, 0, 0, 0, 0, 0, 0, 0, 0, 0, 0, 0, 0, 0, 0, 0, 0, 0, 0, 0, 0, 0, 0, 0, 0, 0, 0, 0, 0, 0, 0, 0, 0, 0, 0, 0, 0, 0, 0, 0, 0, 0, 0, 0, 0, 0, 0, 0, 0, 0, 0, 0, 0, 0, 0, 0, 0, 0, 0, 0, 0, 0, 0, 0, 0, 0, 0, 0, 0, 0, 0, 0, 0, 0, 0, 0, 0, 0, 0, 0, 0, 0, 0, 0, 0, 0, 0, 0, 0, 0, 0, 0, 0, 0, 0, 0, 0, 0, 0, 0, 0, 0, 0, 0, 0, 0, 0, 0, 0, 0, 0, 0, 0, 0, 0, 0, 0, 0, 0, 0, 0, 0, 0, 0, 0, 0, 0, 0, 0, 0, 0, 0, 0, 0, 0, 0, 0, 0, 0, 0, 0, 0, 0, 0, 0, 0, 0, 0, 0, 0, 0, 0, 0, 0, 0, 0, 0, 0, 0, 0, 0, 0, 0, 0, 0, 0, 0, 0, 0, 0, 0, 0, 0, 0, 0, 0, 0, 0, 0, 0, 0, 0, 0, 0, 0, 0, 0, 0, 0, 0, 0, 0, 0, 0, 0, 0, 0, 0, 0, 0, 0, 0, 0, 0, 0, 0, 0, 0, 0, 0, 0, 0, 0, 0, 0, 0, 0, 0, 0, 0, 0, 0, 0, 0, 0, 0, 0, 0, 0, 0, 0, 0, 0, 0, 0, 0, 0, 0, 0, 0, 0, 0, 0, 0, 0, 0, 0, 0, 0, 0, 0, 0, 0, 0, 0, 0, 0, 0, 0, 0, 0, 0, 0, 0, 0, 0, 0, 0, 0, 0, 0, 0, 0, 0, 0, 0, 0, 0, 0, 0, 0, 0, 0, 0, 0, 0, 0, 0, 0, 0, 0, 0, 0, 0, 0, 0, 0, 0, 0, 0, 0, 0, 0, 0, 0, 0, 0, 0, 0, 0, 0, 0, 0, 0, 0, 0, 0, 0, 0, 0, 0, 0, 0, 0, 0, 0, 0, 0, 0, 0, 0, 0, 0, 0, 0, 0, 0, 0, 0, 0, 0, 0, 0, 0, 0, 0, 0, 0, 0, 0, 0, 0, 0, 0, 0, 0, 0, 0, 0, 0, 0, 0, 0, 0, 0, 0, 0, 0, 0, 0, 0, 0, 0, 0, 0, 0, 0, 0, 0, 0, 0, 0, 0, 0, 0, 0, 0, 0, 0, 0, 0, 0, 0, 0, 0, 0, 0, 0, 0, 0, 0, 0, 0, 0, 0, 0, 0, 0, 0, 0, 0, 0, 0, 0, 0, 0, 0, 0, 0, 0, 0, 0, 0, 0, 0, 0, 0, 0, 0, 0, 0, 0, 0, 0, 0, 0, 0, 0, 0, 0, 0, 0, 0, 0, 0, 0, 0, 0, 0, 0, 0, 0, 0, 0, 0, 0, 0, 0, 0, 0, 0, 0, 0, 0, 0, 0, 0, 0, 0, 0, 0, 0, 0, 0, 0, 0, 0, 0, 0, 0, 0, 0, 0, 0, 0, 0, 0, 0, 0, 0, 0, 0, 0, 0, 0, 0, 0, 0, 12, 12, 12, 0, 0, 0, 0, 0, 0, 0, 0, 0, 0, 0, 0, 0, 0, 0, 0, 0, 0, 0, 0, 0, 0, 0, 0, 0, 0, 0, 0, 0, 0, 0, 0, 0, 0, 0, 0, 0, 0, 0, 0, 0, 0, 0, 0, 0, 0, 0, 0, 0, 0, 0, 0, 0, 0, 0, 0, 0, 0, 0, 0, 0, 0, 0, 0, 0, 0, 0, 0, 0, 0, 0, 0, 0, 0, 0, 0, 0, 0, 0, 0, 0, 0, 0, 0, 0, 0, 0, 0, 0, 0, 0, 0, 0, 0, 0, 0, 0, 0, 0, 0, 0, 0, 0, 0, 0, 0, 0, 0, 0, 0, 0, 0, 0, 0, 0, 0, 0, 0, 0, 0, 0, 0, 0, 0, 0, 0, 0, 0, 0, 0, 0, 0, 0, 0, 0, 0, 0, 0, 0, 0, 0, 0, 0, 0, 0, 0, 0, 0, 0, 0, 0, 0, 0, 0, 0, 0, 0, 0, 0, 0, 0, 0, 0, 0, 0, 0, 0, 0, 0, 0, 0, 0, 0, 0, 0, 0, 0, 0, 0, 0, 0, 0, 0, 0, 0, 0, 0, 0, 0, 0, 0, 0, 0, 0, 0, 0, 0, 0, 0, 0, 0, 0, 0, 0, 0, 0, 0, 0, 0, 13, 14, 15, 0, 0, 0, 0, 0, 0, 0, 0, 274, 0, 0, 0, 0, 0, 0, 0, 0, 0, 0, 0, 0, 0, 0, 0, 0, 0, 0, 0, 0, 0, 0, 0, 0, 0, 0, 0, 0, 0, 0, 0, 0, 0, 0, 0, 0, 0, 0, 0, 0, 0, 0, 0, 0, 0, 0, 0, 274, 0, 0, 0, 0, 0, 0, 0, 0, 0, 0, 0, 0, 0, 0, 0, 0, 0, 0, 0, 0, 0, 0, 0, 0, 0, 0, 0, 0, 0, 0, 0, 0, 0, 0, 0, 0, 0, 0, 0, 0, 0, 0, 0, 0, 0, 0, 0, 274, 0, 0, 0, 0, 0, 0, 0, 0, 0, 0, 0, 0, 0, 0, 0, 0, 0, 0, 0, 0, 0, 0, 0, 0, 0, 0, 0, 0, 0, 0, 0, 0, 0, 0, 0, 0, 0, 0, 0, 0, 0, 0, 0, 0, 0, 0, 0, 274, 0, 0, 0, 0, 0, 0, 0, 0, 0, 0, 0, 0, 0, 0, 0, 0, 0, 0, 0, 0, 0, 0, 0, 0, 0, 0, 0, 0, 0, 0, 0, 0, 0, 0, 0, 0, 0, 0, 0, 0, 0, 0, 0, 0, 0, 0, 0, 274, 0, 0, 0, 0, 0, 0, 0, 12, 45, 45, 45, 12, 0, 0, 0, 0, 0, 0, 273, 306, 275, 0, 0, 0, 0, 0, 0, 0, 0, 0, 0, 0, 0, 0, 274, 0, 0, 0, 0, 0, 0, 0, 0, 0, 0, 0, 0, 0, 0, 0, 0, 0, 0, 0, 0, 0, 0, 0, 0, 0, 0, 0, 0, 0, 0, 0, 273, 306, 275, 0, 0, 0, 0, 0, 0, 0, 0, 0, 0, 0, 0, 0, 274, 0, 0, 0, 0, 0, 0, 0, 0, 0, 0, 0, 0, 0, 0, 0, 0, 0, 0, 0, 0, 0, 0, 0, 0, 0, 0, 0, 0, 0, 0, 0, 273, 306, 275, 0, 0, 0, 0, 0, 0, 0, 0, 0, 0, 0, 0, 0, 274, 0, 0, 0, 0, 0, 0, 0, 0, 0, 0, 0, 0, 0, 0, 0, 0, 0, 0, 0, 0, 0, 0, 0, 0, 0, 0, 0, 0, 0, 0, 0, 273, 306, 275, 0, 0, 0, 0, 0, 0, 0, 0, 0, 0, 0, 0, 0, 274, 0, 0, 0, 0, 0, 0, 0, 0, 0, 0, 0, 0, 0, 0, 0, 0, 0, 0, 0, 0, 0, 0, 0, 0, 0, 0, 0, 0, 0, 0, 0, 273, 306, 275, 0, 0, 0, 0, 0, 0, 14, 14, 46, 14, 14, 0, 0, 274, 0, 0, 273, 306, 307, 308, 275, 0, 0, 0, 0, 0, 0, 309, 310, 310, 310, 311, 273, 306, 275, 0, 0, 0, 0, 309, 310, 311, 0, 0, 0, 0, 0, 0, 0, 0, 0, 0, 0, 0, 0, 0, 0, 309, 310, 310, 311, 0, 0, 0, 273, 306, 307, 308, 275, 0, 0, 0, 0, 0, 0, 309, 310, 310, 310, 311, 273, 306, 275, 0, 0, 0, 0, 309, 310, 311, 0, 0, 0, 0, 0, 0, 0, 0, 0, 0, 0, 0, 0, 0, 0, 309, 310, 310, 311, 0, 0, 0, 273, 306, 307, 308, 275, 0, 0, 0, 0, 0, 0, 309, 310, 310, 310, 311, 273, 306, 275, 0, 0, 0, 0, 309, 310, 311, 0, 0, 0, 0, 0, 0, 0, 0, 0, 0, 0, 0, 0, 0, 0, 0, 310, 310, 0, 0, 0, 0, 273, 306, 307, 308, 275, 0, 0, 0, 0, 0, 0, 0, 0, 0, 0, 311, 273, 306, 275, 0, 0, 0, 0, 309, 310, 311, 0, 0, 0, 0, 0, 0, 0, 0, 0, 0, 0, 0, 0, 0, 0, 0, 0, 0, 0, 0, 0, 0, 273, 306, 307, 308, 275, 0, 0, 0, 0, 0, 14, 14, 47, 14, 14, 311, 273, 306, 275, 0, 0, 0, 0, 0, 0, 0, 0, 0, 0, 0, 0, 0, 0, 0, 0, 0, 0, 0, 0, 0, 0, 0, 0, 0, 0, 0, 0, 0, 0, 0, 0, 0, 0, 0, 0, 0, 0, 0, 0, 0, 0, 0, 0, 0, 0, 0, 0, 0, 0, 0, 0, 0, 0, 0, 0, 0, 0, 0, 0, 0, 0, 0, 0, 0, 0, 0, 0, 0, 0, 0, 0, 0, 0, 0, 0, 0, 0, 0, 0, 0, 0, 0, 0, 0, 0, 0, 0, 0, 0, 0, 0, 0, 0, 0, 0, 0, 0, 0, 0, 0, 0, 0, 0, 0, 0, 0, 0, 0, 0, 0, 0, 0, 0, 0, 0, 0, 0, 0, 0, 0, 0, 0, 0, 0, 0, 0, 0, 0, 0, 0, 0, 0, 0, 0, 0, 0, 0, 0, 0, 0, 0, 0, 0, 0, 0, 0, 0, 0, 0, 0, 0, 0, 0, 0, 0, 0, 0, 0, 0, 0, 0, 0, 0, 0, 0, 0, 0, 0, 0, 0, 0, 0, 0, 0, 0, 0, 0, 0, 0, 0, 0, 0, 0, 0, 0, 0, 0, 0, 0, 0, 0, 0, 0, 0, 0, 0, 0, 0, 0, 0, 0, 0, 0, 0, 0, 0, 0, 0, 0, 0, 0, 0, 0, 0, 0, 0, 0, 0, 0, 0, 0, 0, 0, 0, 0, 0, 0, 0, 0, 0, 0, 0, 0, 0, 0, 0, 0, 0, 0, 0, 0, 0, 0, 0, 0, 0, 0, 0, 0, 0, 0, 0, 0, 0, 0, 0, 0, 0, 0, 0, 0, 0, 0, 0, 0, 0, 0, 0, 0, 0, 0, 0, 0, 0, 0, 0, 0, 0, 0, 0, 0, 0, 0, 0, 0, 0, 0, 0, 0, 0, 0, 0, 0, 0, 0, 0, 0, 0, 0, 0, 0, 0, 0, 0, 0, 0, 0, 0, 0, 0, 0, 0, 0, 0, 0, 0, 0, 0, 0, 0, 0, 0, 0, 0, 0, 0, 0, 0, 0, 0, 0, 0, 0, 0, 0, 0, 0, 0, 0, 0, 0, 0, 0, 0, 0, 0, 0, 0, 0, 0, 0, 0, 0, 0, 0, 0, 0, 0, 0, 0, 0, 0, 0, 0, 0, 0, 0, 0, 0, 0, 0, 0, 0, 0, 0, 0, 0, 0, 0, 0, 0, 0, 0, 0, 0, 0, 0, 0, 0, 0, 0, 0, 0, 0, 0, 0, 0, 0, 0, 0, 0, 0, 0, 0, 0, 0, 0, 0, 0, 0, 0, 0, 0, 0, 0, 0, 0, 0, 0, 0, 0, 0, 0, 0],
         "height":15,
         "name":"BackgroundLayer",
         "offsetx":0,
         "offsety":8,
         "opacity":1,
         "type":"tilelayer",
         "visible":true,
         "width":212,
         "x":0,
         "y":0
        }, 
        {
         "data":[0, 0, 0, 0, 0, 0, 0, 0, 0, 0, 0, 0, 0, 0, 0, 0, 0, 0, 0, 0, 0, 0, 0, 0, 0, 0, 0, 0, 0, 0, 0, 0, 0, 0, 0, 0, 0, 0, 0, 0, 0, 0, 0, 0, 0, 0, 0, 0, 0, 0, 0, 0, 0, 0, 0, 0, 0, 0, 0, 0, 0, 0, 0, 0, 0, 0, 0, 0, 0, 0, 0, 0, 0, 0, 0, 0, 0, 0, 0, 0, 0, 0, 0, 0, 0, 0, 0, 0, 0, 0, 0, 0, 0, 0, 0, 0, 0, 0, 0, 0, 0, 0, 0, 0, 0, 0, 0, 0, 0, 0, 0, 0, 0, 0, 0, 0, 0, 0, 0, 0, 0, 0, 0, 0, 0, 0, 0, 0, 0, 0, 0, 0, 0, 0, 0, 0, 0, 0, 0, 0, 0, 0, 0, 0, 0, 0, 0, 0, 0, 0, 0, 0, 0, 0, 0, 0, 0, 0, 0, 0, 0, 0, 0, 0, 0, 0, 0, 0, 0, 0, 0, 0, 0, 0, 0, 0, 0, 0, 0, 0, 0, 0, 0, 0, 0, 0, 0, 0, 0, 0, 0, 0, 0, 0, 0, 0, 0, 0, 0, 0, 0, 0, 0, 0, 0, 0, 0, 0, 0, 0, 0, 0, 0, 0, 0, 0, 0, 0, 0, 0, 0, 0, 0, 0, 0, 0, 0, 0, 0, 0, 0, 0, 0, 0, 0, 0, 0, 0, 0, 0, 0, 0, 0, 0, 0, 0, 0, 0, 0, 0, 0, 0, 0, 0, 0, 0, 0, 0, 0, 0, 0, 0, 0, 0, 0, 0, 0, 0, 0, 0, 0, 0, 0, 0, 0, 0, 0, 0, 0, 0, 0, 0, 0, 0, 0, 0, 0, 0, 0, 0, 0, 0, 0, 0, 0, 0, 0, 0, 0, 0, 0, 0, 0, 0, 0, 0, 0, 0, 0, 0, 0, 0, 0, 0, 0, 0, 0, 0, 0, 0, 0, 0, 0, 0, 0, 0, 0, 0, 0, 0, 0, 0, 0, 0, 0, 0, 0, 0, 0, 0, 0, 0, 0, 0, 0, 0, 0, 0, 0, 0, 0, 0, 0, 0, 0, 0, 0, 0, 0, 0, 0, 0, 0, 0, 0, 0, 0, 0, 0, 0, 0, 0, 0, 0, 0, 0, 0, 0, 0, 0, 0, 0, 0, 0, 0, 0, 0, 0, 0, 0, 0, 0, 0, 0, 0, 0, 0, 0, 0, 0, 0, 0, 0, 0, 0, 0, 0, 0, 0, 0, 0, 0, 0, 0, 0, 0, 0, 0, 0, 0, 0, 0, 0, 0, 0, 0, 0, 0, 0, 0, 0, 0, 0, 0, 0, 0, 0, 0, 0, 0, 0, 0, 0, 0, 0, 0, 0, 0, 0, 0, 0, 0, 0, 0, 0, 0, 0, 0, 0, 0, 0, 0, 0, 0, 0, 0, 0, 0, 0, 0, 0, 0, 0, 0, 0, 0, 0, 0, 0, 0, 0, 0, 0, 0, 0, 0, 0, 0, 0, 0, 0, 0, 0, 0, 0, 0, 0, 0, 0, 0, 0, 0, 0, 0, 0, 0, 0, 0, 0, 0, 0, 0, 0, 0, 0, 0, 0, 0, 0, 0, 0, 0, 0, 0, 0, 0, 0, 0, 0, 0, 0, 0, 0, 0, 0, 0, 0, 0, 0, 0, 0, 0, 0, 0, 0, 0, 0, 0, 0, 0, 0, 0, 0, 0, 0, 0, 0, 0, 0, 0, 0, 0, 0, 0, 0, 0, 0, 0, 0, 0, 0, 0, 0, 0, 0, 0, 0, 0, 0, 0, 0, 0, 0, 0, 0, 0, 0, 0, 0, 0, 0, 0, 0, 0, 0, 0, 0, 0, 0, 0, 0, 0, 0, 0, 0, 0, 0, 0, 0, 0, 0, 0, 0, 0, 0, 0, 0, 0, 0, 0, 0, 0, 0, 0, 0, 0, 0, 0, 0, 0, 0, 0, 0, 0, 0, 0, 0, 0, 0, 0, 0, 0, 0, 0, 0, 0, 0, 0, 0, 0, 0, 0, 0, 0, 0, 0, 0, 0, 0, 0, 0, 0, 0, 0, 0, 0, 0, 0, 0, 0, 0, 0, 0, 0, 0, 0, 0, 0, 0, 0, 0, 0, 0, 0, 0, 0, 0, 0, 0, 0, 0, 0, 0, 0, 0, 0, 0, 0, 0, 0, 0, 0, 0, 0, 0, 0, 0, 0, 0, 0, 0, 0, 0, 0, 0, 0, 0, 0, 0, 0, 0, 0, 0, 0, 0, 0, 0, 0, 0, 0, 0, 0, 0, 0, 0, 0, 0, 0, 0, 0, 0, 0, 0, 0, 0, 0, 0, 0, 0, 0, 0, 0, 0, 0, 0, 0, 0, 0, 0, 0, 0, 0, 0, 0, 0, 0, 0, 0, 0, 0, 0, 0, 0, 0, 0, 0, 0, 0, 0, 0, 0, 0, 0, 0, 0, 0, 0, 0, 0, 0, 0, 0, 0, 0, 0, 0, 0, 0, 0, 0, 0, 0, 0, 0, 0, 0, 0, 0, 0, 0, 0, 0, 0, 0, 0, 0, 0, 0, 0, 0, 0, 0, 0, 0, 0, 0, 0, 0, 0, 0, 0, 0, 0, 0, 0, 0, 0, 0, 0, 0, 0, 0, 0, 0, 0, 0, 0, 0, 0, 0, 0, 0, 0, 0, 0, 0, 0, 0, 0, 0, 0, 0, 0, 0, 0, 0, 0, 0, 0, 0, 0, 0, 0, 0, 0, 0, 0, 0, 0, 0, 0, 0, 0, 0, 0, 0, 0, 0, 0, 0, 0, 0, 0, 0, 0, 0, 0, 0, 0, 0, 0, 0, 0, 0, 0, 0, 0, 0, 0, 0, 0, 0, 0, 0, 0, 0, 0, 0, 0, 0, 0, 0, 0, 0, 0, 0, 0, 0, 0, 0, 0, 0, 0, 0, 0, 0, 0, 0, 0, 0, 0, 0, 0, 0, 0, 0, 0, 0, 0, 0, 0, 0, 0, 0, 0, 0, 0, 0, 0, 0, 0, 0, 0, 0, 0, 0, 0, 0, 0, 0, 0, 0, 0, 0, 0, 0, 0, 0, 0, 0, 0, 0, 0, 0, 0, 0, 0, 0, 0, 0, 0, 0, 0, 0, 0, 0, 0, 0, 0, 0, 0, 0, 0, 0, 0, 0, 0, 0, 0, 0, 0, 0, 0, 0, 0, 0, 0, 0, 0, 0, 0, 0, 0, 0, 0, 0, 0, 0, 0, 0, 0, 0, 0, 0, 0, 0, 0, 0, 0, 0, 0, 0, 0, 0, 0, 0, 0, 0, 0, 0, 0, 0, 0, 0, 0, 0, 0, 0, 0, 0, 0, 0, 0, 0, 0, 0, 0, 0, 0, 0, 0, 0, 0, 0, 0, 0, 0, 0, 0, 0, 0, 0, 0, 0, 0, 0, 0, 0, 0, 0, 0, 0, 0, 0, 0, 0, 0, 0, 0, 0, 0, 0, 0, 0, 0, 0, 0, 0, 0, 0, 0, 0, 0, 0, 0, 0, 0, 0, 0, 0, 0, 0, 0, 0, 0, 0, 0, 0, 0, 0, 0, 0, 0, 0, 0, 0, 0, 0, 0, 0, 0, 0, 0, 0, 0, 0, 0, 0, 0, 0, 0, 0, 0, 0, 0, 0, 0, 0, 0, 0, 0, 0, 0, 0, 0, 0, 0, 0, 0, 0, 0, 0, 0, 0, 0, 0, 0, 0, 0, 0, 0, 0, 0, 0, 0, 0, 0, 0, 0, 0, 0, 0, 0, 0, 0, 0, 0, 0, 0, 0, 0, 0, 0, 0, 0, 0, 0, 0, 0, 0, 0, 0, 0, 0, 0, 0, 0, 0, 0, 0, 0, 0, 0, 0, 0, 0, 0, 0, 0, 0, 0, 0, 0, 0, 0, 0, 0, 0, 0, 0, 0, 0, 0, 0, 0, 0, 0, 0, 34, 34, 0, 0, 0, 0, 0, 0, 0, 0, 0, 0, 0, 0, 0, 0, 0, 0, 0, 0, 0, 0, 0, 0, 0, 0, 0, 0, 0, 0, 0, 0, 0, 0, 0, 0, 0, 0, 0, 0, 0, 0, 0, 0, 0, 0, 0, 0, 0, 0, 0, 0, 0, 0, 0, 0, 0, 0, 0, 0, 0, 0, 0, 0, 0, 0, 0, 0, 0, 0, 0, 0, 0, 0, 0, 0, 0, 0, 0, 0, 0, 0, 0, 0, 0, 0, 0, 0, 0, 0, 0, 0, 0, 0, 0, 0, 0, 0, 0, 0, 0, 0, 0, 0, 0, 0, 0, 0, 0, 0, 0, 0, 0, 0, 0, 0, 0, 0, 0, 0, 0, 0, 0, 0, 0, 0, 0, 0, 0, 0, 0, 0, 0, 0, 0, 0, 0, 0, 0, 0, 0, 0, 0, 0, 0, 0, 0, 0, 0, 0, 0, 0, 0, 0, 0, 0, 0, 0, 0, 0, 0, 0, 0, 0, 0, 0, 0, 0, 0, 0, 0, 0, 0, 0, 0, 0, 0, 0, 0, 0, 0, 0, 0, 0, 0, 0, 0, 0, 0, 0, 0, 0, 0, 0, 0, 0, 0, 0, 0, 0, 0, 0, 0, 0, 0, 0, 0, 0, 0, 0, 0, 34, 34, 34, 0, 0, 0, 0, 0, 0, 0, 0, 0, 0, 0, 0, 0, 0, 0, 0, 0, 0, 0, 0, 0, 0, 0, 0, 0, 0, 0, 0, 0, 0, 0, 0, 0, 0, 0, 0, 0, 0, 0, 0, 0, 0, 0, 0, 0, 0, 0, 0, 0, 0, 0, 0, 0, 0, 0, 0, 0, 0, 0, 0, 0, 0, 0, 0, 0, 0, 0, 0, 0, 0, 0, 0, 0, 0, 0, 0, 0, 0, 0, 0, 0, 0, 0, 0, 0, 0, 0, 0, 0, 0, 0, 0, 0, 0, 0, 0, 0, 0, 0, 0, 0, 0, 0, 0, 0, 0, 0, 0, 0, 0, 0, 0, 0, 0, 0, 0, 0, 0, 0, 0, 0, 0, 0, 0, 0, 0, 0, 0, 0, 0, 0, 0, 0, 0, 0, 0, 0, 0, 0, 0, 0, 0, 0, 0, 0, 0, 0, 0, 0, 0, 0, 0, 0, 0, 0, 0, 0, 0, 0, 0, 0, 0, 0, 0, 0, 0, 0, 0, 0, 0, 0, 0, 0, 0, 0, 0, 0, 0, 0, 0, 0, 0, 0, 0, 0, 0, 0, 0, 0, 0, 0, 0, 0, 0, 0, 0, 0, 0, 0, 0, 0, 0, 0, 0, 0, 0, 0, 0, 34, 34, 34, 34, 0, 0, 0, 0, 0, 0, 0, 0, 0, 0, 0, 0, 0, 0, 0, 0, 0, 0, 0, 0, 0, 0, 0, 0, 0, 0, 0, 0, 0, 0, 0, 0, 0, 0, 0, 0, 0, 0, 0, 0, 0, 0, 0, 0, 0, 0, 0, 0, 0, 0, 0, 0, 0, 0, 0, 0, 0, 0, 0, 0, 0, 0, 0, 0, 0, 0, 0, 0, 0, 0, 0, 0, 0, 0, 0, 0, 0, 0, 0, 0, 0, 0, 0, 0, 0, 0, 0, 0, 0, 0, 0, 0, 0, 0, 0, 0, 0, 0, 0, 0, 0, 0, 0, 0, 0, 0, 0, 0, 0, 0, 0, 0, 0, 0, 0, 0, 0, 0, 0, 0, 0, 0, 0, 0, 0, 0, 0, 0, 0, 0, 0, 0, 0, 0, 0, 0, 0, 0, 0, 0, 0, 0, 0, 0, 0, 0, 0, 0, 0, 0, 0, 0, 0, 0, 0, 0, 0, 0, 0, 0, 0, 0, 0, 0, 0, 0, 0, 0, 0, 0, 0, 0, 0, 0, 0, 0, 0, 0, 0, 0, 0, 0, 0, 0, 0, 0, 0, 0, 0, 0, 0, 0, 0, 0, 0, 0, 0, 0, 0, 0, 0, 0, 0, 0, 0, 0, 0, 34, 34, 34, 34, 34, 0, 0, 0, 0, 0, 0, 0, 0, 0, 0, 0, 0, 0, 0, 0, 0, 0, 0, 0, 0, 0, 0, 0, 0, 0, 0, 0, 0, 0, 0, 0, 0, 0, 0, 0, 0, 0, 0, 0, 0, 0, 0, 0, 0, 0, 0, 0, 0, 0, 0, 0, 0, 0, 0, 0, 0, 0, 0, 0, 0, 0, 0, 0, 0, 0, 0, 0, 0, 265, 266, 0, 0, 0, 0, 0, 0, 0, 0, 0, 265, 266, 0, 0, 0, 0, 0, 0, 0, 0, 0, 0, 0, 0, 0, 0, 0, 0, 0, 0, 0, 0, 0, 0, 0, 0, 0, 0, 0, 0, 0, 0, 0, 0, 0, 0, 0, 0, 0, 0, 0, 0, 0, 0, 0, 0, 0, 0, 0, 0, 0, 0, 0, 0, 0, 0, 0, 0, 0, 0, 0, 0, 0, 0, 0, 0, 0, 0, 0, 0, 0, 0, 0, 0, 0, 0, 0, 0, 0, 0, 34, 0, 0, 34, 0, 0, 0, 0, 0, 0, 0, 0, 0, 0, 34, 34, 0, 0, 34, 0, 0, 0, 0, 0, 0, 0, 0, 0, 0, 0, 0, 0, 0, 0, 0, 0, 0, 0, 0, 0, 0, 0, 0, 0, 0, 0, 0, 34, 34, 34, 34, 34, 34, 0, 0, 0, 0, 0, 0, 0, 0, 0, 0, 0, 0, 0, 0, 0, 0, 0, 0, 0, 0, 0, 0, 0, 0, 0, 0, 0, 0, 0, 0, 0, 0, 0, 0, 0, 0, 0, 0, 0, 0, 0, 0, 0, 0, 0, 0, 0, 0, 0, 0, 0, 0, 0, 0, 0, 0, 0, 0, 0, 0, 265, 266, 0, 0, 0, 0, 0, 0, 298, 299, 0, 0, 0, 0, 0, 0, 0, 0, 0, 298, 299, 0, 0, 0, 0, 0, 0, 0, 0, 0, 0, 0, 0, 0, 0, 0, 0, 0, 0, 0, 0, 0, 0, 0, 0, 0, 0, 0, 0, 0, 0, 0, 0, 0, 0, 0, 0, 0, 0, 0, 0, 0, 0, 0, 0, 0, 0, 0, 0, 0, 0, 0, 0, 0, 0, 0, 0, 0, 0, 0, 0, 0, 0, 0, 0, 0, 0, 0, 0, 0, 0, 0, 0, 0, 0, 0, 0, 0, 34, 34, 0, 0, 34, 34, 0, 0, 0, 0, 0, 0, 0, 0, 34, 34, 34, 0, 0, 34, 34, 0, 0, 0, 0, 0, 0, 0, 0, 0, 0, 0, 0, 0, 0, 0, 0, 0, 0, 0, 0, 0, 0, 0, 0, 0, 0, 34, 34, 34, 34, 34, 34, 34, 0, 0, 0, 0, 0, 0, 0, 0, 0, 0, 0, 0, 0, 0, 0, 0, 0, 0, 0, 0, 0, 0, 0, 0, 0, 0, 0, 0, 0, 0, 0, 0, 0, 0, 0, 0, 0, 0, 0, 0, 0, 0, 0, 0, 0, 0, 0, 0, 0, 0, 265, 266, 0, 0, 0, 0, 0, 0, 0, 0, 298, 299, 0, 0, 0, 0, 0, 0, 298, 299, 0, 0, 0, 0, 0, 0, 0, 0, 0, 298, 299, 0, 0, 0, 0, 0, 0, 0, 0, 0, 0, 0, 0, 0, 0, 0, 0, 0, 0, 0, 0, 0, 0, 0, 0, 0, 0, 0, 0, 0, 0, 0, 0, 0, 0, 0, 0, 0, 0, 0, 0, 0, 0, 0, 0, 0, 0, 0, 0, 0, 0, 0, 0, 0, 0, 0, 0, 0, 0, 0, 0, 0, 0, 0, 0, 0, 0, 0, 0, 0, 0, 0, 0, 0, 0, 0, 0, 34, 34, 34, 0, 0, 34, 34, 34, 0, 0, 0, 0, 0, 0, 34, 34, 34, 34, 0, 0, 34, 34, 34, 0, 0, 0, 0, 0, 265, 266, 0, 0, 0, 0, 0, 0, 0, 0, 0, 0, 0, 0, 0, 0, 265, 266, 0, 34, 34, 34, 34, 34, 34, 34, 34, 0, 0, 0, 0, 0, 0, 0, 0, 0, 0, 0, 0, 0, 0, 0, 0, 0, 0, 0, 0, 0, 0, 0, 0, 0, 0, 0, 0, 0, 0, 0, 0, 0, 0, 0, 0, 0, 0, 0, 0, 0, 0, 0, 0, 0, 0, 0, 0, 0, 0, 298, 299, 0, 0, 0, 0, 0, 0, 0, 0, 298, 299, 0, 0, 0, 0, 0, 0, 298, 299, 0, 0, 0, 0, 0, 0, 0, 0, 0, 298, 299, 0, 0, 0, 0, 0, 0, 0, 0, 0, 0, 0, 0, 0, 0, 0, 0, 0, 0, 0, 0, 0, 0, 0, 0, 0, 0, 0, 0, 0, 0, 0, 0, 0, 0, 0, 0, 0, 0, 0, 0, 0, 0, 0, 0, 0, 0, 0, 0, 0, 0, 0, 0, 0, 0, 0, 0, 0, 0, 0, 0, 0, 0, 0, 0, 0, 0, 0, 0, 0, 0, 0, 0, 0, 0, 0, 34, 34, 34, 34, 0, 0, 34, 34, 34, 34, 0, 0, 0, 0, 34, 34, 34, 34, 34, 0, 0, 34, 34, 34, 34, 0, 0, 0, 0, 298, 299, 0, 0, 0, 0, 0, 0, 0, 0, 0, 0, 0, 0, 0, 0, 298, 299, 34, 34, 34, 34, 34, 34, 34, 34, 34, 0, 0, 0, 0, 0, 0, 0, 0, 34, 0, 0, 0, 0, 0, 0, 0, 0, 0, 0, 0, 0, 0, 1, 1, 1, 1, 1, 1, 1, 1, 1, 1, 1, 1, 1, 1, 1, 1, 1, 1, 1, 1, 1, 1, 1, 1, 1, 1, 1, 1, 1, 1, 1, 1, 1, 1, 1, 1, 1, 1, 1, 1, 1, 1, 1, 1, 1, 1, 1, 1, 1, 1, 1, 1, 1, 1, 1, 1, 1, 1, 1, 1, 1, 1, 1, 1, 1, 1, 1, 1, 1, 0, 0, 1, 1, 1, 1, 1, 1, 1, 1, 1, 1, 1, 1, 1, 1, 1, 0, 0, 0, 1, 1, 1, 1, 1, 1, 1, 1, 1, 1, 1, 1, 1, 1, 1, 1, 1, 1, 1, 1, 1, 1, 1, 1, 1, 1, 1, 1, 1, 1, 1, 1, 1, 1, 1, 1, 1, 1, 1, 1, 1, 1, 1, 1, 1, 1, 1, 1, 1, 1, 1, 1, 1, 1, 1, 1, 1, 1, 1, 1, 1, 1, 1, 1, 0, 0, 1, 1, 1, 1, 1, 1, 1, 1, 1, 1, 1, 1, 1, 1, 1, 1, 1, 1, 1, 1, 1, 1, 1, 1, 1, 1, 1, 1, 1, 1, 1, 1, 1, 1, 1, 1, 1, 1, 1, 1, 1, 1, 1, 1, 1, 1, 1, 1, 1, 1, 1, 1, 1, 1, 1, 1, 1, 1, 1, 1, 1, 1, 1, 1, 1, 1, 1, 1, 1, 1, 1, 1, 1, 1, 1, 1, 1, 1, 1, 1, 1, 1, 1, 1, 1, 1, 1, 1, 1, 1, 1, 1, 1, 1, 1, 1, 1, 1, 1, 1, 1, 1, 1, 1, 1, 1, 1, 1, 1, 1, 1, 1, 1, 1, 1, 1, 1, 1, 1, 1, 1, 1, 1, 1, 1, 1, 0, 0, 1, 1, 1, 1, 1, 1, 1, 1, 1, 1, 1, 1, 1, 1, 1, 0, 0, 0, 1, 1, 1, 1, 1, 1, 1, 1, 1, 1, 1, 1, 1, 1, 1, 1, 1, 1, 1, 1, 1, 1, 1, 1, 1, 1, 1, 1, 1, 1, 1, 1, 1, 1, 1, 1, 1, 1, 1, 1, 1, 1, 1, 1, 1, 1, 1, 1, 1, 1, 1, 1, 1, 1, 1, 1, 1, 1, 1, 1, 1, 1, 1, 1, 0, 0, 1, 1, 1, 1, 1, 1, 1, 1, 1, 1, 1, 1, 1, 1, 1, 1, 1, 1, 1, 1, 1, 1, 1, 1, 1, 1, 1, 1, 1, 1, 1, 1, 1, 1, 1, 1, 1, 1, 1, 1, 1, 1, 1, 1, 1, 1, 1, 1, 1, 1, 1, 1, 1, 1, 1, 1, 1],
         "height":15,
         "name":"GroundLayer",
         "offsetx":0,
         "offsety":8,
         "opacity":1,
         "properties":
            {
             "collision":true
            },
         "propertytypes":
            {
             "collision":"bool"
            },
         "type":"tilelayer",
         "visible":true,
         "width":212,
         "x":0,
         "y":0
        }, 
        {
         "draworder":"topdown",
         "name":"objectsLayer",
         "objects":[
                {
                 "gid":2,
                 "height":16,
                 "id":14,
                 "name":"",
                 "properties":
                    {
                     "frameIndex":1,
                     "immovable":true,
                     "sprite":"tiles_00",
                     "type":"brick"
                    },
                 "propertytypes":
                    {
                     "frameIndex":"int",
                     "immovable":"bool",
                     "sprite":"string",
                     "type":"string"
                    },
                 "rotation":0,
                 "type":"",
                 "visible":true,
                 "width":16,
                 "x":320,
                 "y":168
                }, 
                {
                 "gid":2,
                 "height":16,
                 "id":15,
                 "name":"",
                 "properties":
                    {
                     "frameIndex":1,
                     "immovable":true,
                     "sprite":"tiles_00",
                     "type":"brick"
                    },
                 "propertytypes":
                    {
                     "frameIndex":"int",
                     "immovable":"bool",
                     "sprite":"string",
                     "type":"string"
                    },
                 "rotation":0,
                 "type":"",
                 "visible":true,
                 "width":16,
                 "x":352,
                 "y":168
                }, 
                {
                 "gid":2,
                 "height":16,
                 "id":18,
                 "name":"",
                 "properties":
                    {
                     "frameIndex":1,
                     "immovable":true,
                     "sprite":"tiles_00",
                     "type":"brick"
                    },
                 "propertytypes":
                    {
                     "frameIndex":"int",
                     "immovable":"bool",
                     "sprite":"string",
                     "type":"string"
                    },
                 "rotation":0,
                 "type":"",
                 "visible":true,
                 "width":16,
                 "x":384,
                 "y":168
                }, 
                {
                 "gid":25,
                 "height":16,
                 "id":22,
                 "name":"",
                 "properties":
                    {
                     "frameIndex":24,
                     "immovable":true,
                     "payload":"coin",
                     "sprite":"tiles_00",
                     "type":"lottobox"
                    },
                 "propertytypes":
                    {
                     "frameIndex":"int",
                     "immovable":"bool",
                     "payload":"string",
                     "sprite":"string",
                     "type":"string"
                    },
                 "rotation":0,
                 "type":"",
                 "visible":true,
                 "width":16,
                 "x":368,
                 "y":168
                }, 
                {
                 "gid":25,
                 "height":16,
                 "id":25,
                 "name":"",
                 "properties":
                    {
                     "frameIndex":24,
                     "immovable":true,
                     "payload":"powerup",
                     "sprite":"tiles_00",
                     "type":"lottobox"
                    },
                 "propertytypes":
                    {
                     "frameIndex":"int",
                     "immovable":"bool",
                     "payload":"string",
                     "sprite":"string",
                     "type":"string"
                    },
                 "rotation":0,
                 "type":"",
                 "visible":true,
                 "width":16,
                 "x":336,
                 "y":168
                }, 
                {
                 "gid":25,
                 "height":16,
                 "id":26,
                 "name":"",
                 "properties":
                    {
                     "frameIndex":24,
                     "immovable":true,
                     "payload":"coin",
                     "sprite":"tiles_00",
                     "type":"lottobox"
                    },
                 "propertytypes":
                    {
                     "frameIndex":"int",
                     "immovable":"bool",
                     "payload":"string",
                     "sprite":"string",
                     "type":"string"
                    },
                 "rotation":0,
                 "type":"",
                 "visible":true,
                 "width":16,
                 "x":352,
                 "y":104
                }, 
                {
                 "gid":25,
                 "height":16,
                 "id":30,
                 "name":"",
                 "properties":
                    {
                     "frameIndex":24,
                     "immovable":true,
                     "payload":"coin",
                     "sprite":"tiles_00",
                     "type":"lottobox"
                    },
                 "propertytypes":
                    {
                     "frameIndex":"int",
                     "immovable":"bool",
                     "payload":"string",
                     "sprite":"string",
                     "type":"string"
                    },
                 "rotation":0,
                 "type":"",
                 "visible":true,
                 "width":16,
                 "x":256,
                 "y":168
                }, 
                {
                 "gid":939,
                 "height":32,
                 "id":31,
                 "name":"",
                 "properties":
                    {
                     "frameIndex":0,
                     "sprite":"enemies_00",
                     "type":"goomba"
                    },
                 "propertytypes":
                    {
                     "frameIndex":"int",
                     "sprite":"string",
                     "type":"string"
                    },
                 "rotation":0,
                 "type":"",
                 "visible":true,
                 "width":16,
                 "x":640,
                 "y":216
                }, 
                {
                 "gid":939,
                 "height":32,
                 "id":32,
                 "name":"",
                 "properties":
                    {
                     "frameIndex":0,
                     "sprite":"enemies_00",
                     "type":"goomba"
                    },
                 "propertytypes":
                    {
                     "frameIndex":"int",
                     "sprite":"string",
                     "type":"string"
                    },
                 "rotation":0,
                 "type":"",
                 "visible":true,
                 "width":16,
                 "x":816,
                 "y":216
                }, 
                {
                 "gid":939,
                 "height":32,
                 "id":33,
                 "name":"",
                 "properties":
                    {
                     "frameIndex":0,
                     "sprite":"enemies_00",
                     "type":"goomba"
                    },
                 "propertytypes":
                    {
                     "frameIndex":"int",
                     "sprite":"string",
                     "type":"string"
                    },
                 "rotation":0,
                 "type":"",
                 "visible":true,
                 "width":16,
                 "x":880,
                 "y":216
                }, 
                {
                 "gid":2,
                 "height":16,
                 "id":34,
                 "name":"",
                 "properties":
                    {
                     "frameIndex":1,
                     "immovable":true,
                     "sprite":"tiles_00",
                     "type":"brick"
                    },
                 "propertytypes":
                    {
                     "frameIndex":"int",
                     "immovable":"bool",
                     "sprite":"string",
                     "type":"string"
                    },
                 "rotation":0,
                 "type":"",
                 "visible":true,
                 "width":16,
                 "x":1232,
                 "y":168
                }, 
                {
                 "gid":2,
                 "height":16,
                 "id":35,
                 "name":"",
                 "properties":
                    {
                     "frameIndex":1,
                     "immovable":true,
                     "sprite":"tiles_00",
                     "type":"brick"
                    },
                 "propertytypes":
                    {
                     "frameIndex":"int",
                     "immovable":"bool",
                     "sprite":"string",
                     "type":"string"
                    },
                 "rotation":0,
                 "type":"",
                 "visible":true,
                 "width":16,
                 "x":1264,
                 "y":168
                }, 
                {
                 "gid":2,
                 "height":16,
                 "id":36,
                 "name":"",
                 "properties":
                    {
                     "frameIndex":1,
                     "immovable":true,
                     "sprite":"tiles_00",
                     "type":"brick"
                    },
                 "propertytypes":
                    {
                     "frameIndex":"int",
                     "immovable":"bool",
                     "sprite":"string",
                     "type":"string"
                    },
                 "rotation":0,
                 "type":"",
                 "visible":true,
                 "width":16,
                 "x":1280,
                 "y":104
                }, 
                {
                 "gid":2,
                 "height":16,
                 "id":37,
                 "name":"",
                 "properties":
                    {
                     "frameIndex":1,
                     "immovable":true,
                     "sprite":"tiles_00",
                     "type":"brick"
                    },
                 "propertytypes":
                    {
                     "frameIndex":"int",
                     "immovable":"bool",
                     "sprite":"string",
                     "type":"string"
                    },
                 "rotation":0,
                 "type":"",
                 "visible":true,
                 "width":16,
                 "x":1296,
                 "y":104
                }, 
                {
                 "gid":2,
                 "height":16,
                 "id":38,
                 "name":"",
                 "properties":
                    {
                     "frameIndex":1,
                     "immovable":true,
                     "sprite":"tiles_00",
                     "type":"brick"
                    },
                 "propertytypes":
                    {
                     "frameIndex":"int",
                     "immovable":"bool",
                     "sprite":"string",
                     "type":"string"
                    },
                 "rotation":0,
                 "type":"",
                 "visible":true,
                 "width":16,
                 "x":1312,
                 "y":104
                }, 
                {
                 "gid":2,
                 "height":16,
                 "id":39,
                 "name":"",
                 "properties":
                    {
                     "frameIndex":1,
                     "immovable":true,
                     "sprite":"tiles_00",
                     "type":"brick"
                    },
                 "propertytypes":
                    {
                     "frameIndex":"int",
                     "immovable":"bool",
                     "sprite":"string",
                     "type":"string"
                    },
                 "rotation":0,
                 "type":"",
                 "visible":true,
                 "width":16,
                 "x":1328,
                 "y":104
                }, 
                {
                 "gid":2,
                 "height":16,
                 "id":40,
                 "name":"",
                 "properties":
                    {
                     "frameIndex":1,
                     "immovable":true,
                     "sprite":"tiles_00",
                     "type":"brick"
                    },
                 "propertytypes":
                    {
                     "frameIndex":"int",
                     "immovable":"bool",
                     "sprite":"string",
                     "type":"string"
                    },
                 "rotation":0,
                 "type":"",
                 "visible":true,
                 "width":16,
                 "x":1344,
                 "y":104
                }, 
                {
                 "gid":2,
                 "height":16,
                 "id":41,
                 "name":"",
                 "properties":
                    {
                     "frameIndex":1,
                     "immovable":true,
                     "sprite":"tiles_00",
                     "type":"brick"
                    },
                 "propertytypes":
                    {
                     "frameIndex":"int",
                     "immovable":"bool",
                     "sprite":"string",
                     "type":"string"
                    },
                 "rotation":0,
                 "type":"",
                 "visible":true,
                 "width":16,
                 "x":1360,
                 "y":104
                }, 
                {
                 "gid":2,
                 "height":16,
                 "id":42,
                 "name":"",
                 "properties":
                    {
                     "frameIndex":1,
                     "immovable":true,
                     "sprite":"tiles_00",
                     "type":"brick"
                    },
                 "propertytypes":
                    {
                     "frameIndex":"int",
                     "immovable":"bool",
                     "sprite":"string",
                     "type":"string"
                    },
                 "rotation":0,
                 "type":"",
                 "visible":true,
                 "width":16,
                 "x":1376,
                 "y":104
                }, 
                {
                 "gid":2,
                 "height":16,
                 "id":43,
                 "name":"",
                 "properties":
                    {
                     "frameIndex":1,
                     "immovable":true,
                     "sprite":"tiles_00",
                     "type":"brick"
                    },
                 "propertytypes":
                    {
                     "frameIndex":"int",
                     "immovable":"bool",
                     "sprite":"string",
                     "type":"string"
                    },
                 "rotation":0,
                 "type":"",
                 "visible":true,
                 "width":16,
                 "x":1392,
                 "y":104
                }, 
                {
                 "gid":2,
                 "height":16,
                 "id":44,
                 "name":"",
                 "properties":
                    {
                     "frameIndex":1,
                     "immovable":true,
                     "sprite":"tiles_00",
                     "type":"brick"
                    },
                 "propertytypes":
                    {
                     "frameIndex":"int",
                     "immovable":"bool",
                     "sprite":"string",
                     "type":"string"
                    },
                 "rotation":0,
                 "type":"",
                 "visible":true,
                 "width":16,
                 "x":1456,
                 "y":104
                }, 
                {
                 "gid":2,
                 "height":16,
                 "id":45,
                 "name":"",
                 "properties":
                    {
                     "frameIndex":1,
                     "immovable":true,
                     "sprite":"tiles_00",
                     "type":"brick"
                    },
                 "propertytypes":
                    {
                     "frameIndex":"int",
                     "immovable":"bool",
                     "sprite":"string",
                     "type":"string"
                    },
                 "rotation":0,
                 "type":"",
                 "visible":true,
                 "width":16,
                 "x":1472,
                 "y":104
                }, 
                {
                 "gid":2,
                 "height":16,
                 "id":46,
                 "name":"",
                 "properties":
                    {
                     "frameIndex":1,
                     "immovable":true,
                     "sprite":"tiles_00",
                     "type":"brick"
                    },
                 "propertytypes":
                    {
                     "frameIndex":"int",
                     "immovable":"bool",
                     "sprite":"string",
                     "type":"string"
                    },
                 "rotation":0,
                 "type":"",
                 "visible":true,
                 "width":16,
                 "x":1488,
                 "y":104
                }, 
                {
                 "gid":2,
                 "height":16,
                 "id":47,
                 "name":"",
                 "properties":
                    {
                     "frameIndex":1,
                     "immovable":true,
                     "sprite":"tiles_00",
                     "type":"brick"
                    },
                 "propertytypes":
                    {
                     "frameIndex":"int",
                     "immovable":"bool",
                     "sprite":"string",
                     "type":"string"
                    },
                 "rotation":0,
                 "type":"",
                 "visible":true,
                 "width":16,
                 "x":1504,
                 "y":168
                }, 
                {
                 "gid":2,
                 "height":16,
                 "id":48,
                 "name":"",
                 "properties":
                    {
                     "frameIndex":1,
                     "immovable":true,
                     "sprite":"tiles_00",
                     "type":"brick"
                    },
                 "propertytypes":
                    {
                     "frameIndex":"int",
                     "immovable":"bool",
                     "sprite":"string",
                     "type":"string"
                    },
                 "rotation":0,
                 "type":"",
                 "visible":true,
                 "width":16,
                 "x":1600,
                 "y":168
                }, 
                {
                 "gid":2,
                 "height":16,
                 "id":49,
                 "name":"",
                 "properties":
                    {
                     "frameIndex":1,
                     "immovable":true,
                     "sprite":"tiles_00",
                     "type":"brick"
                    },
                 "propertytypes":
                    {
                     "frameIndex":"int",
                     "immovable":"bool",
                     "sprite":"string",
                     "type":"string"
                    },
                 "rotation":0,
                 "type":"",
                 "visible":true,
                 "width":16,
                 "x":1616,
                 "y":168
                }, 
                {
                 "gid":2,
                 "height":16,
                 "id":50,
                 "name":"",
                 "properties":
                    {
                     "frameIndex":1,
                     "immovable":true,
                     "sprite":"tiles_00",
                     "type":"brick"
                    },
                 "propertytypes":
                    {
                     "frameIndex":"int",
                     "immovable":"bool",
                     "sprite":"string",
                     "type":"string"
                    },
                 "rotation":0,
                 "type":"",
                 "visible":true,
                 "width":16,
                 "x":1888,
                 "y":168
                }, 
                {
                 "gid":2,
                 "height":16,
                 "id":51,
                 "name":"",
                 "properties":
                    {
                     "frameIndex":1,
                     "immovable":true,
                     "sprite":"tiles_00",
                     "type":"brick"
                    },
                 "propertytypes":
                    {
                     "frameIndex":"int",
                     "immovable":"bool",
                     "sprite":"string",
                     "type":"string"
                    },
                 "rotation":0,
                 "type":"",
                 "visible":true,
                 "width":16,
                 "x":1936,
                 "y":104
                }, 
                {
                 "gid":2,
                 "height":16,
                 "id":52,
                 "name":"",
                 "properties":
                    {
                     "frameIndex":1,
                     "immovable":true,
                     "sprite":"tiles_00",
                     "type":"brick"
                    },
                 "propertytypes":
                    {
                     "frameIndex":"int",
                     "immovable":"bool",
                     "sprite":"string",
                     "type":"string"
                    },
                 "rotation":0,
                 "type":"",
                 "visible":true,
                 "width":16,
                 "x":1952,
                 "y":104
                }, 
                {
                 "gid":2,
                 "height":16,
                 "id":53,
                 "name":"",
                 "properties":
                    {
                     "frameIndex":1,
                     "immovable":true,
                     "sprite":"tiles_00",
                     "type":"brick"
                    },
                 "propertytypes":
                    {
                     "frameIndex":"int",
                     "immovable":"bool",
                     "sprite":"string",
                     "type":"string"
                    },
                 "rotation":0,
                 "type":"",
                 "visible":true,
                 "width":16,
                 "x":1968,
                 "y":104
                }, 
                {
                 "gid":2,
                 "height":16,
                 "id":54,
                 "name":"",
                 "properties":
                    {
                     "frameIndex":1,
                     "immovable":true,
                     "sprite":"tiles_00",
                     "type":"brick"
                    },
                 "propertytypes":
                    {
                     "frameIndex":"int",
                     "immovable":"bool",
                     "sprite":"string",
                     "type":"string"
                    },
                 "rotation":0,
                 "type":"",
                 "visible":true,
                 "width":16,
                 "x":2048,
                 "y":104
                }, 
                {
                 "gid":2,
                 "height":16,
                 "id":55,
                 "name":"",
                 "properties":
                    {
                     "frameIndex":1,
                     "immovable":true,
                     "sprite":"tiles_00",
                     "type":"brick"
                    },
                 "propertytypes":
                    {
                     "frameIndex":"int",
                     "immovable":"bool",
                     "sprite":"string",
                     "type":"string"
                    },
                 "rotation":0,
                 "type":"",
                 "visible":true,
                 "width":16,
                 "x":2096,
                 "y":104
                }, 
                {
                 "gid":2,
                 "height":16,
                 "id":56,
                 "name":"",
                 "properties":
                    {
                     "frameIndex":1,
                     "immovable":true,
                     "sprite":"tiles_00",
                     "type":"brick"
                    },
                 "propertytypes":
                    {
                     "frameIndex":"int",
                     "immovable":"bool",
                     "sprite":"string",
                     "type":"string"
                    },
                 "rotation":0,
                 "type":"",
                 "visible":true,
                 "width":16,
                 "x":2064,
                 "y":168
                }, 
                {
                 "gid":2,
                 "height":16,
                 "id":57,
                 "name":"",
                 "properties":
                    {
                     "frameIndex":1,
                     "immovable":true,
                     "sprite":"tiles_00",
                     "type":"brick"
                    },
                 "propertytypes":
                    {
                     "frameIndex":"int",
                     "immovable":"bool",
                     "sprite":"string",
                     "type":"string"
                    },
                 "rotation":0,
                 "type":"",
                 "visible":true,
                 "width":16,
                 "x":2080,
                 "y":168
                }, 
                {
                 "gid":2,
                 "height":16,
                 "id":58,
                 "name":"",
                 "properties":
                    {
                     "frameIndex":1,
                     "immovable":true,
                     "sprite":"tiles_00",
                     "type":"brick"
                    },
                 "propertytypes":
                    {
                     "frameIndex":"int",
                     "immovable":"bool",
                     "sprite":"string",
                     "type":"string"
                    },
                 "rotation":0,
                 "type":"",
                 "visible":true,
                 "width":16,
                 "x":2688,
                 "y":168
                }, 
                {
                 "gid":2,
                 "height":16,
                 "id":59,
                 "name":"",
                 "properties":
                    {
                     "frameIndex":1,
                     "immovable":true,
                     "sprite":"tiles_00",
                     "type":"brick"
                    },
                 "propertytypes":
                    {
                     "frameIndex":"int",
                     "immovable":"bool",
                     "sprite":"string",
                     "type":"string"
                    },
                 "rotation":0,
                 "type":"",
                 "visible":true,
                 "width":16,
                 "x":2704,
                 "y":168
                }, 
                {
                 "gid":2,
                 "height":16,
                 "id":60,
                 "name":"",
                 "properties":
                    {
                     "frameIndex":1,
                     "immovable":true,
                     "sprite":"tiles_00",
                     "type":"brick"
                    },
                 "propertytypes":
                    {
                     "frameIndex":"int",
                     "immovable":"bool",
                     "sprite":"string",
                     "type":"string"
                    },
                 "rotation":0,
                 "type":"",
                 "visible":true,
                 "width":16,
                 "x":2736,
                 "y":168
                }, 
                {
                 "gid":25,
                 "height":16,
                 "id":61,
                 "name":"",
                 "properties":
                    {
                     "frameIndex":24,
                     "immovable":true,
                     "payload":"powerup",
                     "sprite":"tiles_00",
                     "type":"lottobox"
                    },
                 "propertytypes":
                    {
                     "frameIndex":"int",
                     "immovable":"bool",
                     "payload":"string",
                     "sprite":"string",
                     "type":"string"
                    },
                 "rotation":0,
                 "type":"",
                 "visible":true,
                 "width":16,
                 "x":1248,
                 "y":168
                }, 
                {
                 "gid":25,
                 "height":16,
                 "id":62,
                 "name":"",
                 "properties":
                    {
                     "frameIndex":24,
                     "immovable":true,
                     "payload":"powerup",
                     "sprite":"tiles_00",
                     "type":"lottobox"
                    },
                 "propertytypes":
                    {
                     "frameIndex":"int",
                     "immovable":"bool",
                     "payload":"string",
                     "sprite":"string",
                     "type":"string"
                    },
                 "rotation":0,
                 "type":"",
                 "visible":true,
                 "width":16,
                 "x":1744,
                 "y":104
                }, 
                {
                 "gid":25,
                 "height":16,
                 "id":63,
                 "name":"",
                 "properties":
                    {
                     "frameIndex":24,
                     "immovable":true,
                     "payload":"coin",
                     "sprite":"tiles_00",
                     "type":"lottobox"
                    },
                 "propertytypes":
                    {
                     "frameIndex":"int",
                     "immovable":"bool",
                     "payload":"string",
                     "sprite":"string",
                     "type":"string"
                    },
                 "rotation":0,
                 "type":"",
                 "visible":true,
                 "width":16,
                 "x":1504,
                 "y":104
                }, 
                {
                 "gid":25,
                 "height":16,
                 "id":64,
                 "name":"",
                 "properties":
                    {
                     "frameIndex":24,
                     "immovable":true,
                     "payload":"coin",
                     "sprite":"tiles_00",
                     "type":"lottobox"
                    },
                 "propertytypes":
                    {
                     "frameIndex":"int",
                     "immovable":"bool",
                     "payload":"string",
                     "sprite":"string",
                     "type":"string"
                    },
                 "rotation":0,
                 "type":"",
                 "visible":true,
                 "width":16,
                 "x":1696,
                 "y":168
                }, 
                {
                 "gid":25,
                 "height":16,
                 "id":65,
                 "name":"",
                 "properties":
                    {
                     "frameIndex":24,
                     "immovable":true,
                     "payload":"coin",
                     "sprite":"tiles_00",
                     "type":"lottobox"
                    },
                 "propertytypes":
                    {
                     "frameIndex":"int",
                     "immovable":"bool",
                     "payload":"string",
                     "sprite":"string",
                     "type":"string"
                    },
                 "rotation":0,
                 "type":"",
                 "visible":true,
                 "width":16,
                 "x":1744,
                 "y":168
                }, 
                {
                 "gid":25,
                 "height":16,
                 "id":66,
                 "name":"",
                 "properties":
                    {
                     "frameIndex":24,
                     "immovable":true,
                     "payload":"coin",
                     "sprite":"tiles_00",
                     "type":"lottobox"
                    },
                 "propertytypes":
                    {
                     "frameIndex":"int",
                     "immovable":"bool",
                     "payload":"string",
                     "sprite":"string",
                     "type":"string"
                    },
                 "rotation":0,
                 "type":"",
                 "visible":true,
                 "width":16,
                 "x":1792,
                 "y":168
                }, 
                {
                 "gid":25,
                 "height":16,
                 "id":67,
                 "name":"",
                 "properties":
                    {
                     "frameIndex":24,
                     "immovable":true,
                     "payload":"coin",
                     "sprite":"tiles_00",
                     "type":"lottobox"
                    },
                 "propertytypes":
                    {
                     "frameIndex":"int",
                     "immovable":"bool",
                     "payload":"string",
                     "sprite":"string",
                     "type":"string"
                    },
                 "rotation":0,
                 "type":"",
                 "visible":true,
                 "width":16,
                 "x":2064,
                 "y":104
                }, 
                {
                 "gid":25,
                 "height":16,
                 "id":68,
                 "name":"",
                 "properties":
                    {
                     "frameIndex":24,
                     "immovable":true,
                     "payload":"coin",
                     "sprite":"tiles_00",
                     "type":"lottobox"
                    },
                 "propertytypes":
                    {
                     "frameIndex":"int",
                     "immovable":"bool",
                     "payload":"string",
                     "sprite":"string",
                     "type":"string"
                    },
                 "rotation":0,
                 "type":"",
                 "visible":true,
                 "width":16,
                 "x":2080,
                 "y":104
                }, 
                {
                 "gid":25,
                 "height":16,
                 "id":69,
                 "name":"",
                 "properties":
                    {
                     "frameIndex":24,
                     "immovable":true,
                     "payload":"coin",
                     "sprite":"tiles_00",
                     "type":"lottobox"
                    },
                 "propertytypes":
                    {
                     "frameIndex":"int",
                     "immovable":"bool",
                     "payload":"string",
                     "sprite":"string",
                     "type":"string"
                    },
                 "rotation":0,
                 "type":"",
                 "visible":true,
                 "width":16,
                 "x":2720,
                 "y":168
                }, 
                {
                 "gid":939,
                 "height":32,
                 "id":70,
                 "name":"",
                 "properties":
                    {
                     "frameIndex":0,
                     "sprite":"enemies_00",
                     "type":"goomba"
                    },
                 "propertytypes":
                    {
                     "frameIndex":"int",
                     "sprite":"string",
                     "type":"string"
                    },
                 "rotation":0,
                 "type":"",
                 "visible":true,
                 "width":16,
                 "x":1280,
                 "y":88
                }, 
                {
                 "gid":939,
                 "height":32,
                 "id":71,
                 "name":"",
                 "properties":
                    {
                     "frameIndex":0,
                     "sprite":"enemies_00",
                     "type":"goomba"
                    },
                 "propertytypes":
                    {
                     "frameIndex":"int",
                     "sprite":"string",
                     "type":"string"
                    },
                 "rotation":0,
                 "type":"",
                 "visible":true,
                 "width":16,
                 "x":1312,
                 "y":88
                }, 
                {
                 "gid":939,
                 "height":32,
                 "id":72,
                 "name":"",
                 "properties":
                    {
                     "frameIndex":0,
                     "sprite":"enemies_00",
                     "type":"goomba"
                    },
                 "propertytypes":
                    {
                     "frameIndex":"int",
                     "sprite":"string",
                     "type":"string"
                    },
                 "rotation":0,
                 "type":"",
                 "visible":true,
                 "width":16,
                 "x":1552,
                 "y":216
                }, 
                {
                 "gid":939,
                 "height":32,
                 "id":73,
                 "name":"",
                 "properties":
                    {
                     "frameIndex":0,
                     "sprite":"enemies_00",
                     "type":"goomba"
                    },
                 "propertytypes":
                    {
                     "frameIndex":"int",
                     "sprite":"string",
                     "type":"string"
                    },
                 "rotation":0,
                 "type":"",
                 "visible":true,
                 "width":16,
                 "x":1584,
                 "y":216
                }, 
                {
                 "gid":939,
                 "height":32,
                 "id":74,
                 "name":"",
                 "properties":
                    {
                     "frameIndex":0,
                     "sprite":"enemies_00",
                     "type":"goomba"
                    },
                 "propertytypes":
                    {
                     "frameIndex":"int",
                     "sprite":"string",
                     "type":"string"
                    },
                 "rotation":0,
                 "type":"",
                 "visible":true,
                 "width":16,
                 "x":1824,
                 "y":216
                }, 
                {
                 "gid":939,
                 "height":32,
                 "id":75,
                 "name":"",
                 "properties":
                    {
                     "frameIndex":0,
                     "sprite":"enemies_00",
                     "type":"goomba"
                    },
                 "propertytypes":
                    {
                     "frameIndex":"int",
                     "sprite":"string",
                     "type":"string"
                    },
                 "rotation":0,
                 "type":"",
                 "visible":true,
                 "width":16,
                 "x":1844,
                 "y":216
                }, 
                {
                 "gid":939,
                 "height":32,
                 "id":76,
                 "name":"",
                 "properties":
                    {
                     "frameIndex":0,
                     "sprite":"enemies_00",
                     "type":"goomba"
                    },
                 "propertytypes":
                    {
                     "frameIndex":"int",
                     "sprite":"string",
                     "type":"string"
                    },
                 "rotation":0,
                 "type":"",
                 "visible":true,
                 "width":16,
                 "x":1976,
                 "y":216
                }, 
                {
                 "gid":939,
                 "height":32,
                 "id":77,
                 "name":"",
                 "properties":
                    {
                     "frameIndex":0,
                     "sprite":"enemies_00",
                     "type":"goomba"
                    },
                 "propertytypes":
                    {
                     "frameIndex":"int",
                     "sprite":"string",
                     "type":"string"
                    },
                 "rotation":0,
                 "type":"",
                 "visible":true,
                 "width":16,
                 "x":1996,
                 "y":216
                }, 
                {
                 "gid":939,
                 "height":32,
                 "id":79,
                 "name":"",
                 "properties":
                    {
                     "frameIndex":0,
                     "sprite":"enemies_00",
                     "type":"goomba"
                    },
                 "propertytypes":
                    {
                     "frameIndex":"int",
                     "sprite":"string",
                     "type":"string"
                    },
                 "rotation":0,
                 "type":"",
                 "visible":true,
                 "width":16,
                 "x":2036,
                 "y":216
                }, 
                {
                 "gid":939,
                 "height":32,
                 "id":80,
                 "name":"",
                 "properties":
                    {
                     "frameIndex":0,
                     "sprite":"enemies_00",
                     "type":"goomba"
                    },
                 "propertytypes":
                    {
                     "frameIndex":"int",
                     "sprite":"string",
                     "type":"string"
                    },
                 "rotation":0,
                 "type":"",
                 "visible":true,
                 "width":16,
                 "x":2056,
                 "y":216
                }, 
                {
                 "gid":939,
                 "height":32,
                 "id":81,
                 "name":"",
                 "properties":
                    {
                     "frameIndex":0,
                     "sprite":"enemies_00",
                     "type":"goomba"
                    },
                 "propertytypes":
                    {
                     "frameIndex":"int",
                     "sprite":"string",
                     "type":"string"
                    },
                 "rotation":0,
                 "type":"",
                 "visible":true,
                 "width":16,
                 "x":2796,
                 "y":216
                }, 
                {
                 "gid":939,
                 "height":32,
                 "id":82,
                 "name":"",
                 "properties":
                    {
                     "frameIndex":0,
                     "sprite":"enemies_00",
                     "type":"goomba"
                    },
                 "propertytypes":
                    {
                     "frameIndex":"int",
                     "sprite":"string",
                     "type":"string"
                    },
                 "rotation":0,
                 "type":"",
                 "visible":true,
                 "width":16,
                 "x":2816,
                 "y":216
                }, 
                {
                 "gid":945,
                 "height":32,
                 "id":85,
                 "name":"",
                 "properties":
                    {
                     "frameIndex":6,
                     "sprite":"enemies_00",
                     "type":"koopaTroopa"
                    },
                 "propertytypes":
                    {
                     "frameIndex":"int",
                     "sprite":"string",
                     "type":"string"
                    },
                 "rotation":0,
                 "type":"",
                 "visible":true,
                 "width":16,
                 "x":1712,
                 "y":216
                }, 
                {
                 "gid":939,
                 "height":32,
                 "id":89,
                 "name":"",
                 "properties":
                    {
                     "frameIndex":0,
                     "sprite":"enemies_00",
                     "type":"goomba"
                    },
                 "propertytypes":
                    {
                     "frameIndex":"int",
                     "sprite":"string",
                     "type":"string"
                    },
                 "rotation":0,
                 "type":"",
                 "visible":true,
                 "width":16,
                 "x":352,
                 "y":216
                }, 
                {
                 "gid":314,
                 "height":16,
                 "id":101,
                 "name":"",
                 "properties":
                    {
                     "frameIndex":313,
                     "points":5000,
                     "sprite":"tiles_00",
                     "type":"flagpole"
                    },
                 "propertytypes":
                    {
                     "frameIndex":"int",
                     "points":"int",
                     "sprite":"string",
                     "type":"string"
                    },
                 "rotation":0,
                 "type":"",
                 "visible":true,
                 "width":16,
                 "x":3168,
                 "y":72
                }, 
                {
                 "gid":314,
                 "height":16,
                 "id":108,
                 "name":"",
                 "properties":
                    {
                     "frameIndex":313,
                     "points":5000,
                     "sprite":"tiles_00",
                     "type":"flagpole"
                    },
                 "propertytypes":
                    {
                     "frameIndex":"int",
                     "points":"int",
                     "sprite":"string",
                     "type":"string"
                    },
                 "rotation":0,
                 "type":"",
                 "visible":true,
                 "width":16,
                 "x":3168,
                 "y":88
                }, 
                {
                 "gid":314,
                 "height":16,
                 "id":111,
                 "name":"",
                 "properties":
                    {
                     "frameIndex":313,
                     "points":3000,
                     "sprite":"tiles_00",
                     "type":"flagpole"
                    },
                 "propertytypes":
                    {
                     "frameIndex":"int",
                     "points":"int",
                     "sprite":"string",
                     "type":"string"
                    },
                 "rotation":0,
                 "type":"",
                 "visible":true,
                 "width":16,
                 "x":3168,
                 "y":104
                }, 
                {
                 "gid":314,
                 "height":16,
                 "id":112,
                 "name":"",
                 "properties":
                    {
                     "frameIndex":313,
                     "points":3000,
                     "sprite":"tiles_00",
                     "type":"flagpole"
                    },
                 "propertytypes":
                    {
                     "frameIndex":"int",
                     "points":"int",
                     "sprite":"string",
                     "type":"string"
                    },
                 "rotation":0,
                 "type":"",
                 "visible":true,
                 "width":16,
                 "x":3168,
                 "y":120
                }, 
                {
                 "gid":314,
                 "height":16,
                 "id":113,
                 "name":"",
                 "properties":
                    {
                     "frameIndex":313,
                     "points":1000,
                     "sprite":"tiles_00",
                     "type":"flagpole"
                    },
                 "propertytypes":
                    {
                     "frameIndex":"int",
                     "points":"int",
                     "sprite":"string",
                     "type":"string"
                    },
                 "rotation":0,
                 "type":"",
                 "visible":true,
                 "width":16,
                 "x":3168,
                 "y":136
                }, 
                {
                 "gid":314,
                 "height":16,
                 "id":114,
                 "name":"",
                 "properties":
                    {
                     "frameIndex":313,
                     "points":1000,
                     "sprite":"tiles_00",
                     "type":"flagpole"
                    },
                 "propertytypes":
                    {
                     "frameIndex":"int",
                     "points":"int",
                     "sprite":"string",
                     "type":"string"
                    },
                 "rotation":0,
                 "type":"",
                 "visible":true,
                 "width":16,
                 "x":3168,
                 "y":152
                }, 
                {
                 "gid":314,
                 "height":16,
                 "id":115,
                 "name":"",
                 "properties":
                    {
                     "frameIndex":313,
                     "points":200,
                     "sprite":"tiles_00",
                     "type":"flagpole"
                    },
                 "propertytypes":
                    {
                     "frameIndex":"int",
                     "points":"int",
                     "sprite":"string",
                     "type":"string"
                    },
                 "rotation":0,
                 "type":"",
                 "visible":true,
                 "width":16,
                 "x":3168,
                 "y":168
                }, 
                {
                 "gid":314,
                 "height":16,
                 "id":116,
                 "name":"",
                 "properties":
                    {
                     "frameIndex":313,
                     "points":200,
                     "sprite":"tiles_00",
                     "type":"flagpole"
                    },
                 "propertytypes":
                    {
                     "frameIndex":"int",
                     "points":"int",
                     "sprite":"string",
                     "type":"string"
                    },
                 "rotation":0,
                 "type":"",
                 "visible":true,
                 "width":16,
                 "x":3168,
                 "y":184
                }, 
                {
                 "gid":314,
                 "height":16,
                 "id":117,
                 "name":"",
                 "properties":
                    {
                     "frameIndex":313,
                     "points":200,
                     "sprite":"tiles_00",
                     "type":"flagpole"
                    },
                 "propertytypes":
                    {
                     "frameIndex":"int",
                     "points":"int",
                     "sprite":"string",
                     "type":"string"
                    },
                 "rotation":0,
                 "type":"",
                 "visible":true,
                 "width":16,
                 "x":3168,
                 "y":200
                }, 
                {
                 "gid":7155,
                 "height":16,
                 "id":121,
                 "name":"",
                 "properties":
                    {
                     "frameIndex":80,
                     "sprite":"tiles_01",
                     "type":"flag"
                    },
                 "propertytypes":
                    {
                     "frameIndex":"int",
                     "sprite":"string",
                     "type":"string"
                    },
                 "rotation":0,
                 "type":"",
                 "visible":true,
                 "width":16,
                 "x":3160,
                 "y":72
                }, 
                {
                 "gid":925,
                 "height":16,
                 "id":123,
                 "name":"",
                 "properties":
                    {
                     "sprite":"ss_mario_small",
                     "type":"player"
                    },
                 "propertytypes":
                    {
                     "sprite":"string",
                     "type":"string"
                    },
                 "rotation":0,
                 "type":"",
                 "visible":true,
                 "width":16,
                 "x":96,
                 "y":192
                }],
         "opacity":1,
         "type":"objectgroup",
         "visible":true,
         "x":0,
         "y":0
        }],
 "nextobjectid":124,
 "orientation":"orthogonal",
 "renderorder":"right-down",
 "tiledversion":"2017.11.22",
 "tileheight":16,
 "tilesets":[
        {
         "columns":33,
         "firstgid":1,
         "image":"..\/images\/tiles_00.png",
         "imageheight":448,
         "imagewidth":528,
         "margin":0,
         "name":"tiles_00",
         "spacing":0,
         "tilecount":924,
         "tileheight":16,
         "tilewidth":16
        }, 
        {
         "columns":14,
         "firstgid":925,
         "image":"..\/images\/spritesheet_mario_small.png",
         "imageheight":16,
         "imagewidth":224,
         "margin":0,
         "name":"spritesheet_mario_small",
         "spacing":0,
         "tilecount":14,
         "tileheight":16,
         "tilewidth":16
        }, 
        {
         "columns":50,
         "firstgid":939,
         "image":"..\/images\/enemies_00.png",
         "imageheight":128,
         "imagewidth":808,
         "margin":0,
         "name":"enemies_00",
         "spacing":0,
         "tilecount":200,
         "tileheight":32,
         "tilewidth":16
        }, 
        {
         "firstgid":1139,
         "source":"..\/tiled_files\/mario_level1.tsx"
        }, 
        {
         "columns":36,
         "firstgid":7075,
         "image":"..\/images\/tiles_01.png",
         "imageheight":336,
         "imagewidth":576,
         "margin":0,
         "name":"tiles_01",
         "spacing":0,
         "tilecount":756,
         "tileheight":16,
         "tilewidth":16
        }],
 "tilewidth":16,
 "type":"map",
 "version":1,
 "width":212
}